[
    {
        "nome" : "AntiStress",
        "valor" : 60.00
    },
    {
        "nome" : "Reiki",
        "valor" : 80.00
    },
    {
        "nome" : "Tailandesa",
        "valor" : 120.00
    },
    {
        "nome" : "Drenagem Linfática",
        "valor" : 150.00
    },
    {
        "nome" : "Shiatsu",
        "valor" : 250.00
    }
]